{
	"action":
	{
		"user_name"  : "jimmy",
		"host_name"  : "pc01",
		"-ids"        : [2],
		"mask"       : ".*",
		"-type"       : "monitors",
		"type"       : "jobs",
		"operation"  :
		{
			"type"    : "delete",
			"-class"  : "tasks",
			"-status" : "subscribe",
			"-ids"    : [1],
			"sentinel": null
		}
	}
}

