<?xml version="1.0" encoding="UTF-8" standalone="no"?>
<!-- Created with Inkscape (http://www.inkscape.org/) -->

<svg
   xmlns:dc="http://purl.org/dc/elements/1.1/"
   xmlns:cc="http://creativecommons.org/ns#"
   xmlns:rdf="http://www.w3.org/1999/02/22-rdf-syntax-ns#"
   xmlns:svg="http://www.w3.org/2000/svg"
   xmlns="http://www.w3.org/2000/svg"
   xmlns:sodipodi="http://sodipodi.sourceforge.net/DTD/sodipodi-0.dtd"
   xmlns:inkscape="http://www.inkscape.org/namespaces/inkscape"
   width="256"
   height="256"
   viewBox="0 0 67.733332 67.733335"
   version="1.1"
   id="svg8"
   inkscape:version="0.92.3 (2405546, 2018-03-11)"
   sodipodi:docname="xiva-icon-menu.svg">
  <defs
     id="defs2">
    <clipPath
       clipPathUnits="userSpaceOnUse"
       id="clipPath5229">
      <ellipse
         ry="34.058819"
         rx="33.717999"
         cy="262.49124"
         cx="34.215855"
         id="ellipse5231"
         style="opacity:1;fill:none;fill-opacity:0.97209305;fill-rule:evenodd;stroke:none;stroke-width:0.12072832;stroke-linecap:round;stroke-linejoin:round;stroke-miterlimit:4;stroke-dasharray:none;stroke-dashoffset:0;stroke-opacity:1" />
    </clipPath>
  </defs>
  <sodipodi:namedview
     id="base"
     pagecolor="#ffffff"
     bordercolor="#666666"
     borderopacity="1.0"
     inkscape:pageopacity="0.0"
     inkscape:pageshadow="2"
     inkscape:zoom="1.2871553"
     inkscape:cx="49.657027"
     inkscape:cy="129.13106"
     inkscape:document-units="mm"
     inkscape:current-layer="layer1"
     showgrid="false"
     units="px"
     inkscape:pagecheckerboard="false"
     inkscape:window-width="1280"
     inkscape:window-height="683"
     inkscape:window-x="32"
     inkscape:window-y="0"
     inkscape:window-maximized="1" />
  <metadata
     id="metadata5">
    <rdf:RDF>
      <cc:Work
         rdf:about="">
        <dc:format>image/svg+xml</dc:format>
        <dc:type
           rdf:resource="http://purl.org/dc/dcmitype/StillImage" />
        <dc:title></dc:title>
      </cc:Work>
    </rdf:RDF>
  </metadata>
  <g
     inkscape:label="Camada 1"
     inkscape:groupmode="layer"
     id="layer1"
     transform="translate(0,-229.26665)">
    <g
       id="g5227"
       clip-path="url(#clipPath5229)"
       transform="translate(-0.34918798,0.64207521)">
      <ellipse
         ry="32.988346"
         rx="33.229088"
         cy="262.49124"
         cx="34.215858"
         id="circle6227"
         style="opacity:1;fill:#1a1a1a;fill-opacity:1;fill-rule:evenodd;stroke:#00bff5;stroke-width:1.5;stroke-linecap:round;stroke-linejoin:round;stroke-miterlimit:4;stroke-dasharray:none;stroke-dashoffset:0;stroke-opacity:1" />
      <path
         inkscape:export-ydpi="90"
         inkscape:export-xdpi="90"
         inkscape:connector-curvature="0"
         id="path6229"
         d="m 24.296092,279.43154 c -0.07931,0.002 -0.148234,0.006 -0.206247,0.012 -0.610518,0.0636 -6.394457,1.67748 -12.853247,3.58595 -2.263167,0.66872 -4.0289594,1.18843 -5.8396142,1.72159 v 5.38783 c 0,1.38742 0.5799074,2.63307 1.5100092,3.52009 1.3809915,-0.50655 2.8925869,-1.07209 4.551823,-1.70861 6.601697,-2.53263 12.537296,-4.78906 13.190691,-5.0139 0.841224,-0.28943 2.151368,-0.004 4.486957,0.97952 4.027144,1.69477 5.691889,2.11922 8.364365,2.13302 3.219593,0.0166 10.014726,-1.38599 10.811196,-2.23155 0.16067,-0.1706 0.159859,-0.3168 0.02083,-0.43545 -0.417276,-0.35581 -2.079285,-0.46212 -4.360119,-0.22348 -3.70917,0.38821 -7.591458,-0.35701 -9.085241,-1.74372 -1.117871,-1.03774 -0.661375,-1.38616 2.120987,-1.61923 2.57241,-0.21558 3.676174,-0.94842 2.739231,-1.8182 -0.623983,-0.57926 -12.991964,-2.59589 -15.451594,-2.5454 z"
         style="font-style:normal;font-variant:normal;font-weight:bold;font-stretch:normal;font-size:601.66711426px;line-height:125%;font-family:'Open Sans';-inkscape-font-specification:'Open Sans, Bold';text-align:start;letter-spacing:0px;word-spacing:0px;writing-mode:lr-tb;text-anchor:start;fill:#ffffff;fill-opacity:1;stroke:none;stroke-width:0.31942701px;stroke-linecap:butt;stroke-linejoin:miter;stroke-opacity:1" />
      <g
         id="g5219">
        <path
           id="path6231"
           d="M 10.356747,278.46774 33.77461,250.20276 57.191892,278.46774 H 37.626553 l -3.852125,-4.64954 -3.852342,4.64954 z"
           style="fill:#1a1a1a;fill-opacity:1;stroke:#00bff5;stroke-width:0.60364163;stroke-miterlimit:4;stroke-dasharray:none;stroke-opacity:1"
           inkscape:connector-curvature="0" />
        <ellipse
           cy="259.04163"
           cx="33.848251"
           id="ellipse6233"
           style="opacity:1;fill:#1a1a1a;fill-opacity:1;fill-rule:evenodd;stroke:#000000;stroke-width:0.00067083;stroke-linecap:round;stroke-linejoin:round;stroke-miterlimit:4;stroke-dasharray:none;stroke-dashoffset:0;stroke-opacity:1"
           rx="7.3950677"
           ry="7.4322009" />
        <path
           id="path6235"
           d="M 10.328437,245.421 33.7463,273.686 57.163594,245.421 H 37.598255 l -3.852124,4.64955 -3.852355,-4.64955 z m 23.446173,6.69903 a 7.0960467,7.1303451 0 0 1 7.096069,7.13039 7.0960467,7.1303451 0 0 1 -7.096069,7.13028 7.0960467,7.1303451 0 0 1 -5.868203,-3.13328 c 1.316283,-0.89607 2.330043,-1.58219 2.479125,-1.67657 0.270302,-0.17078 0.752008,-0.17679 1.649307,-0.0149 1.547147,0.27116 2.164119,0.28564 3.099936,0.0719 1.127351,-0.25718 3.389126,-1.30847 3.598485,-1.67283 0.0402,-0.0734 0.02882,-0.12477 -0.02882,-0.15581 -0.174837,-0.0918 -0.765049,0.005 -1.543235,0.27667 -1.265439,0.43995 -2.684222,0.49338 -3.320168,0.12436 -0.476209,-0.27616 -0.344539,-0.43647 0.609198,-0.74637 0.882043,-0.28667 1.208165,-0.63602 0.809294,-0.86744 -0.274321,-0.15931 -5.050506,0.1618 -5.68374,0.38152 -0.159894,0.058 -1.313304,0.6848 -2.790123,1.51733 a 7.0960467,7.1303451 0 0 1 -0.107525,-1.23107 7.0960467,7.1303451 0 0 1 7.09602,-7.13033 z"
           style="fill:#00bff5;fill-opacity:1;stroke:#ffffff;stroke-width:0.00126771;stroke-miterlimit:4;stroke-dasharray:none;stroke-opacity:1"
           inkscape:connector-curvature="0" />
      </g>
    </g>
  </g>
</svg>
